%YAML 1.1
%TAG !u! tag:unity3d.com,2011:
--- !u!21 &2100000
Material:
  serializedVersion: 6
  m_ObjectHideFlags: 0
  m_CorrespondingSourceObject: {fileID: 0}
  m_PrefabInstance: {fileID: 0}
  m_PrefabAsset: {fileID: 0}
  m_Name: Skybox
  m_Shader: {fileID: 4800000, guid: 0b818c05049ea1648940eb4142ca7822, type: 3}
  m_ShaderKeywords: _NORM_X
  m_LightmapFlags: 4
  m_EnableInstancingVariants: 0
  m_DoubleSidedGI: 0
  m_CustomRenderQueue: -1
  stringTagMap: {}
  disabledShaderPasses: []
  m_SavedProperties:
    serializedVersion: 3
    m_TexEnvs: []
    m_Floats:
    - _NORM: 1
    - _Norm: 1
    m_Colors:
    - _InnerColor: {r: 0.8, g: 0.8, b: 0.8, a: 0}
    - _OuterColor: {r: 0.5, g: 0.5, b: 0.5, a: 0}
